JTAG-SV/dump_post_function.vcd
$date
   Sun Nov  5 20:42:54 2023
$end
$version
  2023.1
$end
$timescale
  1ps
$end
$scope module tb_gsl3775_full $end
$var wire 1 ! w_shutdown_resetn $end
$var wire 1 $ jtag_DRV_TMS $end
$var wire 1 # jtag_TMS_gpio3 $end
$var wire 1 " jtag_TCK_gpio4 $end
$scope module gsl3775_top_inst $end
$scope module u_cpucs_3775_top $end
$scope module u_n307_core_wrapper $end
$var wire 1 % jtag_BK_TMS $end
$var wire 1 & jtag_TDO $end
$upscope $end
$upscope $end
$upscope $end
$upscope $end
$enddefinitions $end
#1000000
$dumpvars
0!
0"
0#
0$
0%
0&
$end
#6100000
1"
#8100000
0"
#10100000
1"
#12100000
0"
#14100000
1"
#16100000
0"
#18100000
1"
#20100000
0"
#22100000
1"
#24100000
0"
#26100000
1"
#28100000
0"
#30100000
1"
#32100000
0"
#34100000
1"
#36100000
0"
#38100000
1"
#40100000
0"
#42100000
1"
#44100000
0"
#46100000
1"
#48100000
0"
1#
#50100000
1"
#52100000
0"
#54100000
1"
#56100000
0"
0#
#58100000
1"
#60100000
0"
#62100000
1"
#64100000
0"
#66100000
1"
#68100000
0"
1#
#70100000
1"
#72100000
0"
#74100000
1"
#76100000
0"
0#
#78100000
1"
#80100000
0"
1#
#82100000
1"
#84100000
0"
0#
#86100000
1"
#88100000
0"
#90100000
1"
#92100000
0"
1#
#94100000
1"
#96100000
0"
0#
#98100000
1"
#100100000
0"
1#
#102100000
1"
#104100000
0"
#106100000
1"
#108100000
0"
0#
#110100000
1"
#112100000
0"
#114100000
1"
#116100000
0"
#118100000
1"
#120100000
0"
1#
#122100000
1"
#124100000
0"
#126100000
1"
#128100000
0"
#130100000
1"
#132100000
0"
0#
#134100000
1"
#136100000
0"
1#
#138100000
1"
#140100000
0"
#142100000
1"
#144100000
0"
0#
#146100000
1"
#148100000
0"
1#
#150100000
1"
#152100000
0"
#154100000
1"
#156100000
0"
#158100000
1"
#160100000
0"
#162100000
1"
#164100000
0"
#166100000
1"
#168100000
0"
#170100000
1"
#172100000
0"
#174100000
1"
#176100000
0"
0#
#178100000
1"
#180100000
0"
#182100000
1"
#184100000
0"
#186100000
1"
#188100000
0"
#190100000
1"
#192100000
0"
1#
#194100000
1"
#196100000
0"
#198100000
1"
#200100000
0"
#202100000
1"
#204100000
0"
0#
#206100000
1"
#208100000
0"
1#
#210100000
1"
#212100000
0"
0#
#214100000
1"
#216100000
0"
#218100000
1"
#220100000
0"
#222100000
1"
#224100000
0"
1#
#226100000
1"
#228100000
0"
#230100000
1"
#232100000
0"
#234100000
1"
#236100000
0"
0#
#238100000
1"
#240100000
0"
#242100000
1"
#244100000
0"
#246100000
1"
#248100000
0"
#250100000
1"
#252100000
0"
1#
#254100000
1"
#256100000
0"
#258100000
1"
#260100000
0"
0#
#262100000
1"
#264100000
0"
#266100000
1"
#268100000
0"
#270100000
1"
#272100000
0"
#274100000
1"
#276100000
0"
1#
#278100000
1"
#280100000
0"
#282100000
1"
#284100000
0"
#286100000
1"
#288100000
0"
#290100000
1"
#292100000
0"
0#
#294100000
1"
#296100000
0"
#298100000
1"
#300100000
0"
1#
#302100000
1"
#304100000
0"
#306100000
1"
#308100000
0"
0#
#310100000
1"
#312100000
0"
1#
#314100000
1"
#316100000
0"
0#
#318100000
1"
#320100000
0"
#322100000
1"
#324100000
0"
#326100000
1"
#328100000
0"
1#
#330100000
1"
#332100000
0"
#334100000
1"
#336100000
0"
0#
#338100000
1"
#340100000
0"
1#
#342100000
1"
#344100000
0"
#346100000
1"
#348100000
0"
0#
#350100000
1"
#352100000
0"
#354100000
1"
#356100000
0"
1#
#358100000
1"
#360100000
0"
0#
#362100000
1"
#364100000
0"
1#
#366100000
1"
#368100000
0"
#370100000
1"
#372100000
0"
#374100000
1"
#376100000
0"
#378100000
1"
#380100000
0"
#382100000
1"
#384100000
0"
#386100000
1"
#388100000
0"
#390100000
1"
#392100000
0"
0#
#394100000
1"
#396100000
0"
1#
#398100000
1"
#400100000
0"
#402100000
1"
#404100000
0"
#406100000
1"
#408100000
0"
#410100000
1"
#412100000
0"
#414100000
1"
#416100000
0"
0#
#418100000
1"
#420100000
0"
#422100000
1"
#424100000
0"
#426100000
1"
#428100000
0"
#430100000
1"
#432100000
0"
#434100000
1"
#436100000
0"
#438100000
1"
#440100000
0"
1#
#442100000
1"
#444100000
0"
0#
#446100000
1"
#448100000
0"
1#
#450100000
1"
#452100000
0"
#454100000
1"
#456100000
0"
0#
#458100000
1"
#460100000
0"
#462100000
1"
#464100000
0"
#466100000
1"
#468100000
0"
1#
#470100000
1"
#472100000
0"
0#
#474100000
1"
#476100000
0"
#478100000
1"
#480100000
0"
1#
#482100000
1"
#484100000
0"
0#
#486100000
1"
#488100000
0"
#490100000
1"
#492100000
0"
#494100000
1"
#496100000
0"
1#
#498100000
1"
#500100000
0"
0#
#502100000
1"
#504100000
0"
1#
#506100000
1"
#508100000
0"
#510100000
1"
#512100000
0"
0#
#514100000
1"
#516100000
0"
1#
#518100000
1"
#520100000
0"
0#
#522100000
1"
#524100000
0"
1#
#526100000
1"
#528100000
0"
#530100000
1"
#532100000
0"
0#
#534100000
1"
#536100000
0"
1#
#538100000
1"
#540100000
0"
#542100000
1"
#544100000
0"
0#
#546100000
1"
#548100000
0"
#550100000
1"
#552100000
0"
1#
#554100000
1"
#556100000
0"
0#
#558100000
1"
#560100000
0"
#562100000
1!
#1300000000
1#
#1302000000
1"
#1304000000
0"
#1306000000
1"
#1308000000
0"
#1310000000
1"
#1312000000
0"
#1314000000
1"
#1316000000
0"
#1318000000
1"
#1320000000
0"
0#
#1322000000
1"
#1324000000
0"
1#
#1326000000
1"
#1328000000
0"
#1330000000
1"
#1332000000
0"
#1334000000
1"
#1336000000
0"
#1338000000
1"
#1340000000
0"
#1342000000
1"
#1344000000
0"
0#
#1346000000
1"
#1348000000
0"
1#
#1350000000
1"
#1352000000
0"
#1354000000
1"
#1356000000
0"
#1358000000
1"
#1360000000
0"
#1362000000
1"
#1364000000
0"
#1366000000
1"
#1368000000
0"
0#
#1370000000
1"
#1372000000
0"
1#
#1374000000
1"
#1376000000
0"
#1378000000
1"
#1380000000
0"
#1382000000
1"
#1384000000
0"
#1386000000
1"
#1388000000
0"
#1390000000
1"
#1392000000
0"
0#
#1394000000
1"
#1398000000
1#
#1400000000
0#
#1402000000
1#
#1404000000
0#
#1406000000
1#
#1408000000
0#
#1410000000
1#
#1412000000
0#
#1414000000
1#
#1416000000
0#
#1418000000
1#
#1420000000
0#
#1422000000
1#
#1424000000
0#
#1426000000
1#
#1428000000
0"
#1430000000
1"
#1432000000
0"
#1434000000
1"
#1436000000
0"
#1438000000
1"
#1440000000
0"
#1442000000
1"
#1444000000
0"
#1446000000
1"
#1448000000
0"
#1450000000
1"
#1452000000
0"
#1454000000
1"
#1456000000
0"
#1458000000
1"
#1460000000
0"
#1462000000
1"
#1464000000
0"
#1466000000
1"
#1468000000
0"
#1470000000
1"
#1472000000
0"
#1474000000
1"
#1476000000
0"
#1478000000
1"
#1480000000
0"
#1482000000
1"
#1484000000
0"
#1486000000
1"
#1488000000
0"
#1490000000
1"
#1492000000
0"
#1494000000
1"
#1496000000
0"
#1498000000
1"
#1500000000
0"
#1502000000
1"
#1504000000
0"
#1506000000
1"
#1508000000
0"
#1510000000
1"
#1512000000
0"
#1514000000
1"
#1516000000
0"
#1518000000
1"
#1520000000
0"
#1522000000
1"
#1524000000
0"
#1526000000
1"
#1528000000
0"
#1530000000
1"
#1532000000
0"
#1534000000
1"
#1536000000
0"
#1538000000
1"
#1540000000
0"
#1542000000
1"
#1544000000
0"
#1546000000
1"
#1548000000
0"
#1550000000
1"
#1552000000
0"
#1554000000
1"
#1556000000
0"
#1558000000
1"
#1560000000
0"
#1562000000
1"
#1564000000
0"
#1566000000
1"
#1568000000
0"
#1570000000
1"
#1572000000
0"
#1574000000
1"
#1576000000
0"
#1578000000
1"
#1580000000
0"
#1582000000
1"
#1584000000
0"
#1586000000
1"
#1588000000
0"
#1590000000
1"
#1592000000
0"
#1594000000
1"
#1596000000
0"
#1598000000
1"
#1600000000
0"
#1602000000
1"
#1604000000
0"
#1606000000
1"
#1608000000
0"
#1610000000
1"
#1612000000
0"
#1614000000
1"
#1616000000
0"
#1618000000
1"
#1620000000
0"
#1622000000
1"
#1624000000
0"
#1626000000
1"
#1628000000
0"
0#
#1630000000
1"
#1632000000
0"
1#
#1634000000
1"
#1636000000
0"
0#
#1638000000
1"
#1640000000
0"
1#
#1642000000
1"
#1644000000
0"
#1646000000
1"
#1648000000
0"
#1650000000
1"
#1652000000
0"
0#
#1654000000
1"
#1656000000
0"
1#
#1658000000
1"
#1660000000
0"
#1662000000
1"
#1664000000
0"
#1666000000
1"
#1668000000
0"
0#
#1670000000
1"
#1672000000
0"
#1674000000
1"
#1676000000
0"
1#
#1678000000
1"
#1680000000
0"
#1682000000
1"
#1684000000
0"
#1686000000
1"
#1688000000
0"
0#
#1690000000
1"
#1692000000
0"
#1694000000
1"
#1696000000
0"
#1698000000
1"
#1700000000
0"
#1702000000
1"
#1704000000
0"
1#
#1706000000
1"
#1708000000
0"
#1710000000
1"
#1712000000
0"
#1714000000
1"
#1716000000
0"
0#
#1718000000
1"
#1720000000
0"
#1722000000
1"
#1724000000
0"
#1726000000
1"
#1728000000
0"
#1730000000
1"
#1732000000
0"
#1734000000
1"
#1736000000
0"
#1738000000
1"
#1740000000
0"
#1742000000
1"
#1744000000
0"
#1746000000
1"
#1748000000
0"
#1750000000
1"
#1752000000
0"
#1754000000
1"
#1756000000
0"
1#
#1758000000
1"
#1760000000
0"
#1762000000
1"
#1764000000
0"
0#
#1766000000
1"
#1768000000
0"
#1770000000
1"
#1772000000
0"
#1774000000
1"
#1776000000
0"
#1778000000
1"
#1780000000
0"
#1782000000
1"
#1782000100
1%
#1784000000
0"
1#
#1786000000
1"
#1788000000
0"
#1790000000
1"
#1792000000
0"
0#
#1792000100
1$
#1794000000
1"
#1794000100
0#
0$
#1796000000
0"
1#
#1798000000
1"
#1800000000
0"
0#
#1802000000
1"
#1804000000
0"
#1804000100
1$
#1806000000
1"
#1806000100
0#
0$
#1808000000
0"
1#
#1810000000
1"
#1812000000
0"
0#
#1814000000
1"
#1816000000
0"
#1816000100
1$
#1818000000
1"
#1818000100
0#
0$
#1820000000
0"
1#
#1822000000
1"
#1824000000
0"
0#
#1826000000
1"
#1828000000
0"
#1828000100
1$
#1830000000
1"
#1830000100
0#
0$
#1832000000
0"
1#
#1834000000
1"
#1836000000
0"
0#
#1838000000
1"
#1840000000
0"
#1840000100
1$
#1842000000
1"
#1842000100
0#
0$
#1844000000
0"
1#
#1846000000
1"
#1848000000
0"
0#
#1850000000
1"
#1852000000
0"
#1852000100
1$
#1854000000
1"
#1854000100
0#
0$
#1856000000
0"
1#
#1858000000
1"
#1860000000
0"
0#
#1862000000
1"
#1864000000
0"
#1864000100
1$
#1866000000
1"
#1866000100
0#
0$
#1868000000
0"
1#
#1870000000
1"
#1872000000
0"
0#
#1874000000
1"
#1876000000
0"
#1876000100
1$
#1878000000
1"
#1878000100
0#
0$
#1880000000
0"
1#
#1882000000
1"
#1884000000
0"
0#
#1886000000
1"
#1888000000
0"
#1888000100
1$
#1890000000
1"
#1890000100
0#
0$
#1892000000
0"
1#
#1894000000
1"
#1896000000
0"
0#
#1898000000
1"
#1900000000
0"
#1900000100
1$
#1902000000
1"
#1902000100
0#
0$
#1904000000
0"
1#
#1906000000
1"
#1908000000
0"
0#
#1910000000
1"
#1912000000
0"
#1912000100
1$
#1914000000
1"
#1914000100
0#
0$
#1916000000
0"
1#
#1918000000
1"
#1920000000
0"
#1922000000
1"
#1924000000
0"
0#
#1924000100
1$
#1926000000
1"
#1926000100
0#
0$
#1928000000
0"
1#
#1930000000
1"
#1932000000
0"
#1934000000
1"
#1936000000
0"
0#
#1936000100
1$
#1938000000
1"
#1938000100
0#
0$
#1940000000
0"
1#
#1942000000
1"
#1944000000
0"
0#
#1946000000
1"
#1948000000
0"
#1948000100
1$
#1950000000
1"
#1950000100
0#
0$
#1952000000
0"
1#
#1954000000
1"
#1956000000
0"
#1958000000
1"
#1960000000
0"
0#
#1960000100
1$
#1962000000
1"
#1962000100
0#
0$
#1964000000
0"
1#
#1966000000
1"
#1968000000
0"
0#
#1970000000
1"
#1972000000
0"
#1972000100
1$
#1974000000
1"
#1974000100
0#
0$
#1976000000
0"
1#
#1978000000
1"
#1980000000
0"
#1982000000
1"
#1984000000
0"
0#
#1984000100
1$
#1986000000
1"
#1986000100
0#
0$
#1988000000
0"
1#
#1990000000
1"
#1992000000
0"
#1994000000
1"
#1996000000
0"
0#
#1996000100
1$
#1998000000
1"
#1998000100
0#
0$
#2000000000
0"
1#
#2002000000
1"
#2004000000
0"
0#
#2006000000
1"
#2008000000
0"
#2008000100
1$
#2010000000
1"
#2010000100
0#
0$
#2012000000
0"
1#
#2014000000
1"
#2016000000
0"
#2018000000
1"
#2020000000
0"
0#
#2020000100
1$
#2022000000
1"
#2022000100
0#
0$
#2024000000
0"
1#
#2026000000
1"
#2028000000
0"
0#
#2030000000
1"
#2032000000
0"
#2032000100
1$
#2034000000
1"
#2034000100
0#
0$
#2036000000
0"
1#
#2038000000
1"
#2040000000
0"
0#
#2042000000
1"
#2044000000
0"
#2044000100
1$
#2046000000
1"
#2046000100
0#
0$
#2048000000
0"
1#
#2050000000
1"
#2052000000
0"
0#
#2052000100
1&
#2054000000
1"
#2056000000
0"
#2056000100
1#
1$
#2058000000
1"
#2058000100
0#
0$
#2060000000
0"
1#
#2062000000
1"
#2064000000
0"
0#
#2064000100
0&
#2066000000
1"
#2068000000
0"
#2068000100
1$
#2070000000
1"
#2070000100
0#
0$
#2072000000
0"
1#
#2074000000
1"
#2076000000
0"
0#
#2078000000
1"
#2080000000
0"
#2080000100
1$
#2082000000
1"
#2082000100
0#
0$
#2084000000
0"
1#
#2086000000
1"
#2088000000
0"
0#
#2088000100
1&
#2090000000
1"
#2092000000
0"
#2092000100
1#
1$
#2094000000
1"
#2094000100
0#
0$
#2096000000
0"
1#
#2098000000
1"
#2100000000
0"
0#
#2100000100
0&
#2102000000
1"
#2104000000
0"
#2104000100
1$
#2106000000
1"
#2106000100
0#
0$
#2108000000
0"
1#
#2110000000
1"
#2112000000
0"
0#
#2114000000
1"
#2116000000
0"
#2116000100
1$
#2118000000
1"
#2118000100
0#
0$
#2120000000
0"
1#
#2122000000
1"
#2124000000
0"
0#
#2126000000
1"
#2128000000
0"
#2128000100
1$
#2130000000
1"
#2130000100
0#
0$
#2132000000
0"
1#
#2134000000
1"
#2136000000
0"
0#
#2138000000
1"
#2140000000
0"
#2140000100
1$
#2142000000
1"
#2142000100
0#
0$
#2144000000
0"
1#
#2146000000
1"
#2148000000
0"
0#
#2150000000
1"
#2152000000
0"
#2152000100
1$
#2154000000
1"
#2154000100
0#
0$
#2156000000
0"
1#
#2158000000
1"
#2160000000
0"
0#
#2162000000
1"
#2164000000
0"
#2164000100
1$
#2166000000
1"
#2166000100
0#
0$
#2168000000
0"
1#
#2170000000
1"
#2172000000
0"
0#
#2174000000
1"
#2176000000
0"
#2176000100
1$
#2178000000
1"
#2178000100
0#
0$
#2180000000
0"
1#
#2182000000
1"
#2184000000
0"
0#
#2186000000
1"
#2188000000
0"
#2188000100
1$
#2190000000
1"
#2190000100
0#
0$
#2192000000
0"
1#
#2194000000
1"
#2196000000
0"
0#
#2198000000
1"
#2200000000
0"
#2200000100
1$
#2202000000
1"
#2202000100
0#
0$
#2204000000
0"
1#
#2206000000
1"
#2208000000
0"
0#
#2210000000
1"
#2212000000
0"
#2212000100
1$
#2214000000
1"
#2214000100
0#
0$
#2216000000
0"
1#
#2218000000
1"
#2220000000
0"
0#
#2220000100
1&
#2222000000
1"
#2224000000
0"
#2224000100
1#
1$
#2226000000
1"
#2226000100
0#
0$
#2228000000
0"
1#
#2230000000
1"
#2232000000
0"
0#
#2232000100
0&
#2234000000
1"
#2236000000
0"
#2236000100
1$
#2238000000
1"
#2238000100
0#
0$
#2240000000
0"
1#
#2242000000
1"
#2244000000
0"
0#
#2246000000
1"
#2248000000
0"
#2248000100
1$
#2250000000
1"
#2250000100
0#
0$
#2252000000
0"
1#
#2254000000
1"
#2256000000
0"
0#
#2258000000
1"
#2260000000
0"
#2260000100
1$
#2262000000
1"
#2262000100
0#
0$
#2264000000
0"
1#
#2266000000
1"
#2268000000
0"
0#
#2270000000
1"
#2272000000
0"
#2272000100
1$
#2274000000
1"
#2274000100
0#
0$
#2276000000
0"
1#
#2278000000
1"
#2280000000
0"
0#
#2280000100
1&
#2282000000
1"
#2284000000
0"
#2284000100
1#
1$
#2286000000
1"
#2286000100
0#
0$
#2288000000
0"
1#
#2290000000
1"
#2292000000
0"
0#
#2292000100
0&
#2294000000
1"
#2296000000
0"
#2296000100
1$
#2298000000
1"
#2298000100
0#
0$
#2300000000
0"
1#
#2302000000
1"
#2304000000
0"
0#
#2304000100
1&
#2306000000
1"
#2308000000
0"
#2308000100
1#
1$
#2310000000
1"
#2310000100
0#
0$
#2312000000
0"
1#
#2314000000
1"
#2316000000
0"
0#
#2318000000
1"
#2320000000
0"
#2320000100
1#
1$
#2322000000
1"
#2322000100
0#
0$
#2324000000
0"
1#
#2326000000
1"
#2328000000
0"
0#
#2328000100
0&
#2330000000
1"
#2332000000
0"
#2332000100
1$
#2334000000
1"
#2334000100
0#
0$
#2336000000
0"
1#
#2338000000
1"
#2340000000
0"
0#
#2342000000
1"
#2344000000
0"
#2344000100
1$
#2346000000
1"
#2346000100
0#
0$
#2348000000
0"
1#
#2350000000
1"
#2352000000
0"
0#
#2354000000
1"
#2356000000
0"
#2356000100
1$
#2358000000
1"
#2358000100
0#
0$
#2360000000
0"
1#
#2362000000
1"
#2364000000
0"
0#
#2366000000
1"
#2368000000
0"
#2368000100
1$
#2370000000
1"
#2370000100
0#
0$
#2372000000
0"
1#
#2374000000
1"
#2376000000
0"
0#
#2378000000
1"
#2380000000
0"
#2380000100
1$
#2382000000
1"
#2382000100
0#
0$
#2384000000
0"
1#
#2386000000
1"
#2388000000
0"
0#
#2390000000
1"
#2392000000
0"
#2392000100
1$
#2394000000
1"
#2394000100
0#
0$
#2396000000
0"
1#
#2398000000
1"
#2400000000
0"
0#
#2400000100
1&
#2402000000
1"
#2404000000
0"
#2404000100
1#
1$
#2406000000
1"
#2406000100
0#
0$
#2408000000
0"
1#
#2410000000
1"
#2412000000
0"
0#
#2412000100
0&
#2414000000
1"
#2416000000
0"
#2416000100
1$
#2418000000
1"
#2418000100
0#
0$
#2420000000
0"
1#
#2422000000
1"
#2424000000
0"
#2424000100
1&
#2426000000
1"
#2428000000
0"
0#
#2428000100
1#
1$
#2430000000
1"
#2430000100
0#
0$
#2432000000
0"
1#
#2434000000
1"
#2436000000
0"
#2436000100
0&
#2438000000
1"
#2440000000
0"
0#
#2440000100
1$
#2442000000
1"
#2442000100
0#
0$
#2444000000
0"
1#
#2446000000
1"
#2448000000
0"
0#
#2450000000
1"
#2452000000
0"
#2452000100
1$
#2454000000
1"
#2454000100
0#
0$
#2456000000
0"
#2458000000
1"
#2460000000
0"
#2462000000
1"
#2464000000
0"
#2464000100
1$
#2466000000
1"
#2466000100
0#
0$
#2468000000
0"
#2470000000
1"
#2472000000
0"
1#
#2474000000
1"
#2476000000
0"
#2478000000
1"
#2480000000
0"
0#
#2480000100
1$
#2482000000
1"
#2482000100
0#
0$
#2484000000
0"
1#
#2486000000
1"
#2488000000
0"
#2490000000
1"
#2492000000
0"
0#
#2492000100
1$
#2494000000
1"
#2494000100
0#
0$
#2496000000
0"
1#
#2498000000
1"
#2500000000
0"
0#
#2502000000
1"
#2504000000
0"
#2504000100
1$
#2506000000
1"
#2506000100
0#
0$
#2508000000
0"
1#
#2510000000
1"
#2512000000
0"
0#
#2514000000
1"
#2516000000
0"
#2516000100
1$
#2518000000
1"
#2518000100
0#
0$
#2520000000
0"
1#
#2522000000
1"
#2524000000
0"
#2526000000
1"
#2528000000
0"
0#
#2528000100
1$
#2530000000
1"
#2530000100
0#
0$
#2532000000
0"
1#
#2534000000
1"
#2536000000
0"
#2538000000
1"
#2540000000
0"
0#
#2540000100
1$
#2542000000
1"
#2542000100
0#
0$
#2544000000
0"
1#
#2546000000
1"
#2548000000
0"
0#
#2550000000
1"
#2552000000
0"
#2552000100
1$
#2554000000
1"
#2554000100
0#
0$
#2556000000
0"
1#
#2558000000
1"
#2560000000
0"
0#
#2562000000
1"
#2564000000
0"
#2564000100
1$
#2566000000
1"
#2566000100
0#
0$
#2568000000
0"
1#
#2570000000
1"
#2572000000
0"
0#
#2574000000
1"
#2576000000
0"
#2576000100
1$
#2578000000
1"
#2578000100
0#
0$
#2580000000
0"
1#
#2582000000
1"
#2584000000
0"
0#
#2586000000
1"
#2588000000
0"
#2588000100
1$
#2590000000
1"
#2590000100
0#
0$
#2592000000
0"
1#
#2594000000
1"
#2596000000
0"
0#
#2598000000
1"
#2600000000
0"
#2600000100
1$
#2602000000
1"
#2602000100
0#
0$
#2604000000
0"
1#
#2606000000
1"
#2608000000
0"
0#
#2610000000
1"
#2612000000
0"
#2612000100
1$
#2614000000
1"
#2614000100
0#
0$
#2616000000
0"
1#
#2618000000
1"
#2620000000
0"
#2622000000
1"
#2624000000
0"
0#
#2624000100
1$
#2626000000
1"
#2626000100
0#
0$
#2628000000
0"
1#
#2630000000
1"
#2632000000
0"
#2634000000
1"
#2636000000
0"
0#
#2636000100
1$
#2638000000
1"
#2638000100
0#
0$
#2640000000
0"
1#
#2642000000
1"
#2644000000
0"
0#
#2646000000
1"
#2648000000
0"
#2648000100
1$
#2650000000
1"
#2650000100
0#
0$
#2652000000
0"
1#
#2654000000
1"
#2656000000
0"
0#
#2658000000
1"
#2660000000
0"
#2660000100
1$
#2662000000
1"
#2662000100
0#
0$
#2664000000
0"
#2664000100
1&
#2666000000
1"
#2668000000
0"
#2670000000
1"
#2672000000
0"
#2672000100
1#
1$
#2674000000
1"
#2674000100
0#
0$
#2676000000
0"
1#
#2676000100
0&
#2678000000
1"
#2680000000
0"
0#
#2682000000
1"
#2684000000
0"
#2684000100
1$
#2686000000
1"
#2686000100
0#
0$
#2688000000
0"
1#
#2690000000
1"
#2692000000
0"
0#
#2694000000
1"
#2696000000
0"
#2696000100
1$
#2698000000
1"
#2698000100
0#
0$
#2700000000
0"
1#
#2702000000
1"
#2704000000
0"
0#
#2706000000
1"
#2708000000
0"
#2708000100
1$
#2710000000
1"
#2710000100
0#
0$
#2712000000
0"
#2714000000
1"
#2716000000
0"
1#
#2718000000
1"
#2720000000
0"
0#
#2720000100
1$
#2722000000
1"
#2722000100
0#
0$
#2724000000
0"
1#
#2726000000
1"
#2728000000
0"
#2730000000
1"
#2732000000
0"
0#
#2732000100
1$
#2734000000
1"
#2734000100
0#
0$
#2736000000
0"
1#
#2738000000
1"
#2740000000
0"
0#
#2742000000
1"
#2744000000
0"
#2744000100
1$
#2746000000
1"
#2746000100
0#
0$
#2748000000
0"
1#
#2750000000
1"
#2752000000
0"
#2754000000
1"
#2756000000
0"
0#
#2756000100
1$
#2758000000
1"
#2758000100
0#
0$
#2760000000
0"
1#
#2762000000
1"
#2764000000
0"
0#
#2766000000
1"
#2768000000
0"
#2768000100
1$
#2770000000
1"
#2770000100
0#
0$
#2772000000
0"
1#
#2774000000
1"
#2776000000
0"
0#
#2778000000
1"
#2780000000
0"
#2780000100
1$
#2782000000
1"
#2782000100
0#
0$
#2784000000
0"
#2786000000
1"
#2788000000
0"
#2790000000
1"
#2792000000
0"
#2792000100
1$
#2794000000
1"
#2794000100
0#
0$
#2796000000
0"
1#
#2798000000
1"
#2800000000
0"
0#
#2802000000
1"
#2804000000
0"
#2804000100
1$
#2806000000
1"
#2806000100
0#
0$
#2808000000
0"
1#
#2810000000
1"
#2812000000
0"
0#
#2814000000
1"
#2816000000
0"
#2816000100
1$
#2818000000
1"
#2818000100
0#
0$
#2820000000
0"
1#
#2822000000
1"
#2824000000
0"
0#
#2826000000
1"
#2828000000
0"
#2828000100
1$
#2830000000
1"
#2830000100
0#
0$
#2832000000
0"
1#
#2834000000
1"
#2836000000
0"
0#
#2838000000
1"
#2840000000
0"
#2840000100
1$
#2842000000
1"
#2842000100
0#
0$
#2844000000
0"
1#
#2846000000
1"
#2848000000
0"
0#
#2850000000
1"
#2852000000
0"
#2852000100
1$
#2854000000
1"
#2854000100
0#
0$
#2856000000
0"
1#
#2858000000
1"
#2860000000
0"
0#
#2862000000
1"
#2864000000
0"
#2864000100
1$
#2866000000
1"
#2866000100
0#
0$
#2868000000
0"
1#
#2870000000
1"
#2872000000
0"
0#
#2874000000
1"
#2876000000
0"
#2876000100
1$
#2878000000
1"
#2878000100
0#
0$
#2880000000
0"
1#
#2882000000
1"
#2884000000
0"
0#
#2886000000
1"
#2888000000
0"
#2888000100
1$
#2890000000
1"
#2890000100
0#
0$
#2892000000
0"
1#
#2894000000
1"
#2896000000
0"
0#
#2898000000
1"
#2900000000
0"
#2900000100
1$
#2902000000
1"
#2902000100
0#
0$
#2904000000
0"
1#
#2906000000
1"
#2908000000
0"
0#
#2910000000
1"
#2912000000
0"
#2912000100
1$
#2914000000
1"
#2914000100
0#
0$
#2916000000
0"
1#
#2918000000
1"
#2920000000
0"
0#
#2922000000
1"
#2924000000
0"
#2924000100
1$
#2926000000
1"
#2926000100
0#
0$
#2928000000
0"
1#
#2930000000
1"
#2932000000
0"
0#
#2934000000
1"
#2936000000
0"
#2936000100
1$
#2938000000
1"
#2938000100
0#
0$
#2940000000
0"
1#
#2942000000
1"
#2944000000
0"
0#
#2946000000
1"
#2948000000
0"
#2948000100
1$
#2950000000
1"
#2950000100
0#
0$
#2952000000
0"
1#
#2954000000
1"
#2956000000
0"
0#
#2958000000
1"
#2960000000
0"
#2960000100
1$
#2962000000
1"
#2962000100
0#
0$
#2964000000
0"
1#
#2966000000
1"
#2968000000
0"
0#
#2970000000
1"
#2972000000
0"
#2972000100
1$
#2974000000
1"
#2974000100
0#
0$
#2976000000
0"
1#
#2978000000
1"
#2980000000
0"
0#
#2982000000
1"
#2984000000
0"
#2984000100
1$
#2986000000
1"
#2986000100
0#
0$
#2988000000
0"
1#
#2990000000
1"
#2992000000
0"
0#
#2994000000
1"
#2996000000
0"
#2996000100
1$
#2998000000
1"
#2998000100
0#
0$
#3000000000
0"
1#
#3002000000
1"
#3004000000
0"
0#
#3006000000
1"
#3008000000
0"
#3008000100
1$
#3010000000
1"
#3010000100
0#
0$
#3012000000
0"
1#
#3014000000
1"
#3016000000
0"
0#
#3018000000
1"
#3020000000
0"
#3020000100
1$
#3022000000
1"
#3022000100
0#
0$
#3024000000
0"
1#
#3026000000
1"
#3028000000
0"
0#
#3030000000
1"
#3032000000
0"
#3032000100
1$
#3034000000
1"
#3034000100
0#
0$
#3036000000
0"
1#
#3038000000
1"
#3040000000
0"
0#
#3042000000
1"
#3044000000
0"
#3044000100
1$
#3046000000
1"
#3046000100
0#
0$
#3048000000
0"
1#
#3050000000
1"
#3052000000
0"
0#
#3054000000
1"
#3056000000
0"
#3056000100
1$
#3058000000
1"
#3058000100
0#
0$
#3060000000
0"
1#
#3062000000
1"
#3064000000
0"
0#
#3066000000
1"
#3068000000
0"
#3068000100
1$
#3070000000
1"
#3070000100
0#
0$
#3072000000
0"
1#
#3074000000
1"
#3076000000
0"
0#
#3078000000
1"
#3080000000
0"
#3080000100
1$
#3082000000
1"
#3082000100
0#
0$
#3084000000
0"
1#
#3086000000
1"
#3088000000
0"
0#
#3090000000
1"
#3092000000
0"
#3092000100
1$
#3094000000
1"
#3094000100
0#
0$
#3096000000
0"
1#
#3098000000
1"
#3100000000
0"
0#
#3102000000
1"
#3104000000
0"
#3104000100
1$
#3106000000
1"
#3106000100
0#
0$
#3108000000
0"
1#
#3110000000
1"
#3112000000
0"
0#
#3114000000
1"
#3116000000
0"
#3116000100
1$
#3118000000
1"
#3118000100
0#
0$
#3120000000
0"
1#
#3122000000
1"
#3124000000
0"
0#
#3126000000
1"
#3128000000
0"
#3128000100
1$
#3130000000
1"
#3130000100
0#
0$
#3132000000
0"
1#
#3134000000
1"
#3136000000
0"
0#
#3138000000
1"
#3140000000
0"
#3140000100
1$
#3142000000
1"
#3142000100
0#
0$
#3144000000
0"
1#
#3146000000
1"
#3148000000
0"
0#
#3150000000
1"
#3152000000
0"
#3152000100
1$
#3154000000
1"
#3154000100
0#
0$
#3156000000
0"
1#
#3158000000
1"
#3160000000
0"
0#
#3162000000
1"
#3164000000
0"
#3164000100
1$
#3166000000
1"
#3166000100
0#
0$
#3168000000
0"
1#
#3170000000
1"
#3172000000
0"
0#
#3174000000
1"
#3176000000
0"
#3176000100
1$
#3178000000
1"
#3178000100
0#
0$
#3180000000
0"
1#
#3182000000
1"
#3184000000
0"
0#
#3186000000
1"
#3188000000
0"
#3188000100
1$
#3190000000
1"
#3190000100
0#
0$
#3192000000
0"
1#
#3194000000
1"
#3196000000
0"
0#
#3198000000
1"
#3200000000
0"
#3200000100
1$
#3202000000
1"
#3202000100
0#
0$
#3204000000
0"
1#
#3206000000
1"
#3208000000
0"
0#
#3210000000
1"
#3212000000
0"
#3212000100
1$
#3214000000
1"
#3214000100
0#
0$
#3216000000
0"
1#
#3218000000
1"
#3220000000
0"
0#
#3222000000
1"
#3224000000
0"
#3224000100
1$
#3226000000
1"
#3226000100
0#
0$
#3228000000
0"
1#
#3230000000
1"
#3232000000
0"
0#
#3234000000
1"
#3236000000
0"
#3236000100
1$
#3238000000
1"
#3238000100
0#
0$
#3240000000
0"
#3242000000
1"
#3244000000
0"
#3246000000
1"
